capacity, load, taskRate, throughput, avg_wait, avg_wait_sd, avg_req, avq_reg_sd, met_req, met_req_sd, percent_req, percent_req_sd,
200000.0,1000.0,250.0,0.0,NaN,NaN,14400.833333333334,107.44148278119687,0.0,0.0,0.0,0.0
200000.0,1000.0,250.0,0.5,5.670349976267618,0.03960252197558519,14407.933333333332,121.99561012138464,4642.5,748.3870544934174,0.3222021791432903,0.05161724938951546
200000.0,1000.0,250.0,1.0,5.665054044062383,0.030968297806496833,14400.966666666667,114.3493137520097,6080.5,778.2984324794699,0.422198618792757,0.054047637835196935
200000.0,1000.0,250.0,1.5,5.687254168627259,0.030675076224614035,14385.566666666668,66.50548014178146,7001.4,996.6261953878864,0.4867095195861557,0.06934878682694086
200000.0,1000.0,250.0,2.0,5.666183599022335,0.021843354572179115,14430.5,107.67721826520842,7512.266666666666,782.0382315178431,0.5206255983749418,0.0544782744219355
200000.0,1000.0,250.0,2.5,5.67928914045082,0.02517588301580562,14397.366666666667,139.09864205743426,7773.633333333333,850.0604089644977,0.5399297945307969,0.05874289115112086
200000.0,1000.0,250.0,3.0,5.685456674068414,0.02568557939206801,14428.5,115.76664747096491,8037.3,541.6949418261167,0.5571318746542511,0.038615559615469815
200000.0,1000.0,250.0,3.5,5.675333847236934,0.02629147798926388,14370.2,83.64504368660064,8217.433333333332,842.436058239569,0.5717745183834126,0.0577604090765498
200000.0,1000.0,250.0,4.0,5.663902263155434,0.02492426206055826,14407.8,127.50069280857522,8267.3,812.9945530772843,0.5738594546580666,0.05674399743765363
200000.0,1000.0,250.0,4.5,5.685598503388822,0.033635440591045916,14421.266666666666,96.26108017031365,8479.033333333333,803.5488984636979,0.5879011387630483,0.054894531409980886
200000.0,1000.0,250.0,5.0,5.684954613191815,0.025170366789439184,14390.0,90.9347751596348,8302.366666666667,773.007480918235,0.5769049357570384,0.05303533827955483
200000.0,1000.0,250.0,5.5,5.6797249777211345,0.034840285526409935,14447.333333333334,119.44352454426131,8654.233333333334,695.4297320522197,0.5990476534792892,0.048316254490868446
200000.0,1000.0,250.0,6.0,5.681523837340552,0.03153169210319329,14377.333333333334,121.49055747487357,8417.1,715.8288133345849,0.5855100417858284,0.05019327973641034
200000.0,1000.0,250.0,6.5,5.680516220870767,0.01992762003072136,14392.733333333334,139.49024657261486,8697.866666666667,813.0782960795077,0.604361111715021,0.05644676739387812
200000.0,1000.0,250.0,7.0,5.687576730045819,0.02141835469923329,14340.8,127.9347229384319,8557.2,862.4476950323808,0.5966946903025439,0.05979382106268675
200000.0,1000.0,250.0,7.5,5.672582419999383,0.027485296993094623,14395.333333333334,132.18026411768977,8718.1,696.1032179210206,0.6056001281742552,0.047789972646655
200000.0,1000.0,250.0,8.0,5.675414535248391,0.020549258023666295,14388.933333333332,112.93329397874166,8583.3,748.560625467303,0.5966094919362237,0.05283730972263062
200000.0,1000.0,250.0,8.5,5.676991197754368,0.03083164867598248,14419.366666666667,109.18439550696897,8784.833333333334,731.3099700005615,0.6092199487850442,0.05036227301188216
200000.0,1000.0,250.0,9.0,5.675110276794186,0.021867895897336717,14442.766666666666,140.11797013786475,8856.266666666666,838.2785906579958,0.6134136685628347,0.06017299285761114
200000.0,1000.0,250.0,9.5,5.674918406874965,0.02757260919103346,14395.366666666667,118.04447843456674,8654.533333333333,1005.3120156891038,0.6011408409864603,0.0692548901930927
200000.0,1000.0,250.0,10.0,5.680829461093155,0.02611477244659395,14400.133333333333,123.09555457267966,8782.033333333333,979.1850517422921,0.6098475707489902,0.06774071524822592
200000.0,1000.0,250.0,10.5,5.68112776197868,0.027820255158923606,14403.233333333334,151.63238074002822,8614.6,857.3136959907577,0.5980765780377896,0.059051717621960695
200000.0,1000.0,250.0,11.0,5.672715945836985,0.030907244405479456,14375.066666666668,121.75109399462859,8718.866666666667,951.6129021590427,0.6064519046363674,0.06534183305402863
200000.0,1000.0,250.0,11.5,5.684271164299578,0.025065565480482093,14368.233333333334,130.86065956666357,8885.5,872.8246005546208,0.6183524645441895,0.05999968084602691
200000.0,1000.0,250.0,12.0,5.681241277323649,0.026973614876684572,14398.066666666668,105.67936832177267,8916.466666666667,688.0116633378309,0.6193132725417936,0.04795271383062646
200000.0,1000.0,250.0,12.5,5.684800203303287,0.025777489118589774,14391.8,114.2848488062467,9124.066666666668,922.7174696996307,0.6338785968689554,0.06320804121806521
200000.0,1000.0,250.0,13.0,5.679189864295292,0.02921036367793805,14398.0,105.21501793945578,8779.666666666666,672.70649039698,0.609841234706074,0.047279390822399125
200000.0,1000.0,250.0,13.5,5.681714813589323,0.02554646266334406,14369.833333333334,106.507615794469,8945.533333333333,896.2975969075351,0.6223860296625513,0.06105018285698541
200000.0,1000.0,250.0,14.0,5.680278768697466,0.01888615829749281,14409.7,122.55016659855397,8941.2,805.846279799483,0.6204661443855897,0.05526831484770104
200000.0,1000.0,250.0,14.5,5.6841918840346555,0.017422953666394382,14454.433333333332,122.30118106089118,9087.866666666667,682.8858730092135,0.6286581488808023,0.046182318884141385
200000.0,1000.0,250.0,15.0,5.677575214281572,0.026881868730379323,14408.566666666668,109.26441425378266,8998.5,932.7745976386792,0.6244165816505121,0.06345802802292133
200000.0,1000.0,250.0,15.5,5.685916731844026,0.02525724983162576,14389.833333333334,121.82476030028633,8624.4,809.6974990698687,0.5993106464288304,0.05559003328969851
200000.0,1000.0,250.0,16.0,5.685475116798775,0.029814644043433737,14431.933333333332,127.36821511751754,8893.7,700.1141406942156,0.6163174265417353,0.04910741033618778
200000.0,1000.0,250.0,16.5,5.683535658398541,0.024284416889156644,14453.2,98.20095043667686,8696.233333333334,718.9785663626482,0.6017480597144083,0.05037490895950251
200000.0,1000.0,250.0,17.0,5.678627784936437,0.026374817942976622,14414.666666666666,102.97453838476555,8810.733333333334,966.9437051291502,0.6111811740123129,0.06642405177662127
200000.0,1000.0,250.0,17.5,5.676894297582839,0.023939814327023416,14352.5,123.63433988985423,8711.1,972.3544398349126,0.6069834186481232,0.0679021635909222
200000.0,1000.0,250.0,18.0,5.684035653387059,0.03233888510417549,14384.933333333332,99.46957100317441,8961.3,780.2350991848547,0.6229951962015492,0.0544480175487781
200000.0,1000.0,250.0,18.5,5.683991974884669,0.024191162331543063,14389.466666666667,88.18417595515018,8989.0,862.8748074508453,0.6246903451367883,0.05983844455855497
200000.0,1000.0,250.0,19.0,5.680452744440834,0.028101005471448687,14416.4,122.168353785531,8956.633333333333,782.500244231414,0.6212544917277236,0.053879844371414055
200000.0,1000.0,250.0,19.5,5.675965951626795,0.023342040985861616,14396.9,107.73620561352621,8958.266666666666,849.5523893334786,0.6222350648497543,0.05888359516587852
200000.0,1000.0,250.0,20.0,5.668637070056324,0.02270180955816797,14421.633333333333,113.845065281236,8986.5,909.7538403326473,0.623258667495283,0.06428031681729869
200000.0,1000.0,250.0,20.5,5.682079706668063,0.03131082030885572,14392.633333333333,122.15085845880176,8597.333333333334,1012.9258062113379,0.5973357622239498,0.070121021496206
200000.0,1000.0,250.0,21.0,5.673071231806751,0.02801068667212697,14395.6,96.62663538935143,9202.266666666666,837.4514088723132,0.6392114848123592,0.0577661905641977
200000.0,1000.0,250.0,21.5,5.6708850039096745,0.0244383942997536,14396.666666666666,106.56526430106368,9163.033333333333,937.7188094282612,0.6364877598066426,0.06523485678612269
200000.0,1000.0,250.0,22.0,5.67707603187424,0.025429187546444708,14422.5,112.09452856109138,9039.6,844.5509891849831,0.6267592924278644,0.05825653013206739
200000.0,1000.0,250.0,22.5,5.680360854635305,0.02369469698006711,14390.766666666666,89.78146925854033,8862.466666666667,1013.876873962295,0.615818291415022,0.07016402530115805
200000.0,1000.0,250.0,23.0,5.68272061218749,0.02605680953659677,14404.9,116.61113440262326,8742.3,1180.4625971767732,0.6067739030884824,0.08116506268274143
200000.0,1000.0,250.0,23.5,5.679123226165129,0.024640790792419702,14389.166666666666,127.6257767415693,9083.366666666667,827.2174032394522,0.63120322613386,0.05645566934646408
200000.0,1000.0,250.0,24.0,5.675375354534676,0.028706661227457783,14396.966666666667,113.81285320892171,8927.433333333332,950.9260638392918,0.6200584430128288,0.06554957883994328
200000.0,1000.0,250.0,24.5,5.677466821376471,0.03123362957171941,14394.066666666668,105.22355038467177,8688.3,951.9495837490556,0.6036211596570161,0.06604523769498363
200000.0,1000.0,250.0,25.0,5.671903054216474,0.02494903667880721,14427.4,126.03639685953154,8943.6,1064.2890459519601,0.6197465526653821,0.07213184094478141
200000.0,1000.0,250.0,25.5,5.680280933998476,0.029463231536726742,14417.4,124.06654128598356,8637.166666666666,967.614457771735,0.5991665207116105,0.06764187518428216
200000.0,1000.0,250.0,26.0,5.686924039900905,0.02398942365543654,14394.833333333334,119.2686277088638,8872.633333333333,786.6075465072925,0.6164290414275939,0.05521601046470982
200000.0,1000.0,250.0,26.5,5.677560759698248,0.024640605584667005,14369.8,132.47374582661024,8919.7,1094.0155132964674,0.6208051858249723,0.07641135012177937
200000.0,1000.0,250.0,27.0,5.674926726699735,0.023092818908430415,14419.833333333334,109.77039167684921,9024.033333333333,865.6863744387392,0.6257740951374408,0.059489791583667344
200000.0,1000.0,250.0,27.5,5.674841653196224,0.024849050338210964,14414.533333333333,122.73541551737306,9128.1,735.475961537833,0.6332378589617548,0.05053905294155311
200000.0,1000.0,250.0,28.0,5.680928472903682,0.025125717635513783,14377.8,139.50565102054708,9026.2,1070.9142324823838,0.627676780998826,0.07339619994867236
200000.0,1000.0,250.0,28.5,5.68546714042515,0.01865285950254253,14390.2,119.76321082313494,9250.633333333333,871.0462859241306,0.6428558331661371,0.06043151071813532
200000.0,1000.0,250.0,29.0,5.6678762323107446,0.01810045191166078,14358.966666666667,108.32650747726626,9209.833333333334,730.268447596879,0.6414124230404218,0.05084201222665997
200000.0,1000.0,250.0,29.5,5.679202011975161,0.021783504224658863,14398.2,101.69280538300958,8972.7,743.9158621779751,0.6232130266744492,0.05175322714993022
200000.0,1000.0,250.0,30.0,5.673290330084169,0.024684438910311638,14383.066666666668,101.52140442072083,9094.533333333333,805.7653394271947,0.6323819687713239,0.05660934206267067
200000.0,1000.0,250.0,30.5,5.6849843778272,0.03450661106845541,14415.5,100.13316134028726,8797.633333333333,861.7656094063836,0.6102938924203508,0.05975288992899614
200000.0,1000.0,250.0,31.0,5.678603565218108,0.021622212012301145,14422.3,104.75945462502816,9327.066666666668,706.54383838199,0.6467813812997129,0.0496629431435563
200000.0,1000.0,250.0,31.5,5.6779092251278795,0.0239354652288401,14377.933333333332,122.92624708426685,8968.466666666667,932.6551250179364,0.6237758110823866,0.06461790839048097
200000.0,1000.0,250.0,32.0,5.6716389637409055,0.032465311332709364,14382.3,125.80147057963988,8769.566666666668,982.2061454818037,0.6097128580247007,0.0675807218746009
200000.0,1000.0,250.0,32.5,5.684307806503787,0.023701954405892373,14429.566666666668,126.52633015393364,9001.2,968.7294221470377,0.6236579700197902,0.06563236825180199
200000.0,1000.0,250.0,33.0,5.677174099122551,0.02015503279272427,14382.5,114.59312079410934,9314.433333333332,1036.1988446024998,0.6475028294703383,0.07080900826238673
200000.0,1000.0,250.0,33.5,5.681343444922662,0.02467945495573154,14422.033333333333,98.45082811005479,9080.566666666668,963.0517702710597,0.6296712488701744,0.06700697558756992
200000.0,1000.0,250.0,34.0,5.68567175801166,0.02393192262540604,14381.8,106.19711232734467,8872.2,1068.9079598668288,0.6170727072415303,0.07553273995901881
200000.0,1000.0,250.0,34.5,5.683886093780481,0.0291139054025811,14398.1,130.8116585018323,8928.933333333332,656.6422635059537,0.6201768809863173,0.04567341666752295
200000.0,1000.0,250.0,35.0,5.680605560089973,0.03194617731260116,14449.066666666668,108.26262307719851,9017.566666666668,954.355583044857,0.62419753780962,0.06697975920977835
200000.0,1000.0,250.0,35.5,5.686749653567821,0.027466794728799634,14390.666666666666,84.63857801788076,9200.0,738.1457399005519,0.6394059971682939,0.05231125577728353
200000.0,1000.0,250.0,36.0,5.674181153786445,0.02841529826410132,14445.966666666667,96.92178404374438,8912.266666666666,850.7358357458689,0.6170936306613481,0.06022637911948485
200000.0,1000.0,250.0,36.5,5.6869834706342175,0.018909105584095722,14426.0,128.28873683998918,9335.366666666667,888.3741510322226,0.6471702937602981,0.06184560418506517
200000.0,1000.0,250.0,37.0,5.676705754937046,0.02654607075147923,14387.2,145.35528886146523,9010.7,727.8155970665464,0.626343882880096,0.050676053367719964
200000.0,1000.0,250.0,37.5,5.67231094886219,0.026547549802759716,14353.9,115.79388297027323,9266.6,822.4851609603666,0.6455668193187117,0.05691345784339125
200000.0,1000.0,250.0,38.0,5.674174780515587,0.02475243559656172,14383.833333333334,118.23622776271053,9116.666666666666,919.4394064984501,0.6339379302403688,0.06503724064103933
200000.0,1000.0,250.0,38.5,5.68122510199524,0.024529355022808747,14376.033333333333,87.58100377491812,9281.6,639.252772122786,0.6456660618687947,0.04479011592932191
200000.0,1000.0,250.0,39.0,5.681645908954662,0.02413717221831025,14431.766666666666,97.55602948505482,9178.6,866.546771193954,0.6360371680066614,0.06017005752551638
200000.0,1000.0,250.0,39.5,5.688081944691212,0.024305445059531354,14381.933333333332,105.87096968585026,9044.933333333332,744.346242610849,0.6289858887686989,0.052494602270630325
200000.0,1000.0,250.0,40.0,5.67779302712611,0.025240608200445696,14395.5,105.78996486749897,9092.966666666667,743.7585398202535,0.6316998305768163,0.05204231580332405
