,date,num,app,instance,avg_wait,avg_req,met_req,percent_req
0,20200329,1,1001.0,1001.0,145,14424.2,14040.8,0.9734242681209679
1,20200329,1,1001.0,1002.0,147,14351.2,14274.8,0.9946866725135189
2,20200329,1,1001.0,1004.0,146,14380.2,14291.0,0.9937981344920042
3,20200329,1,1001.0,1006.0,146,14294.2,14183.4,0.9922447930444708
4,20200329,1,1001.0,1008.0,146,14409.0,14238.8,0.9881955114335506
5,20200329,1,1001.0,901.0,142,14414.6,13330.5,0.9247940913949435
6,20200329,1,1001.0,902.0,147,14477.4,14338.8,0.9904225170688183
7,20200329,1,1001.0,904.0,147,14474.0,14321.7,0.9894853395937758
8,20200329,1,1001.0,906.0,145,14423.6,14023.6,0.9722453430606219
9,20200329,1,1001.0,908.0,144,14401.9,13758.9,0.9553405129298971
10,20200329,1,1001.0,921.0,143,14413.9,13525.4,0.9383069381065713
11,20200329,1,1001.0,922.0,148,14342.8,14199.8,0.9900416117847843
12,20200329,1,1001.0,924.0,146,14377.3,14249.2,0.9911028900905536
13,20200329,1,1001.0,926.0,145,14436.3,14173.5,0.981797417164126
14,20200329,1,1001.0,928.0,144,14399.5,13818.8,0.9596431621400111
15,20200329,1,1001.0,941.0,144,14383.1,13737.3,0.9550726489655249
16,20200329,1,1001.0,942.0,147,14391.5,14295.7,0.9933385997814188
17,20200329,1,1001.0,944.0,146,14391.2,14264.5,0.991191872389701
18,20200329,1,1001.0,946.0,146,14361.0,14211.7,0.9896071819563238
19,20200329,1,1001.0,948.0,146,14390.9,14104.0,0.9800709994100687
20,20200329,1,1001.0,961.0,145,14381.8,13896.5,0.966258655713772
21,20200329,1,1001.0,962.0,147,14342.4,14249.9,0.9935463025826904
22,20200329,1,1001.0,964.0,147,14423.3,14321.7,0.9929505626091103
23,20200329,1,1001.0,966.0,147,14416.7,14285.1,0.9908753276713963
24,20200329,1,1001.0,968.0,146,14373.8,14139.1,0.9836791489505355
25,20200329,1,1001.0,981.0,145,14398.8,14069.7,0.9771468752491226
26,20200329,1,1001.0,982.0,147,14382.8,14288.4,0.9934341523723773
27,20200329,1,1001.0,984.0,146,14379.0,14287.6,0.9936516704561056
28,20200329,1,1001.0,986.0,146,14439.3,14334.7,0.9927625503843936
29,20200329,1,1001.0,988.0,147,14387.9,14196.3,0.986685612777752
30,20200329,1,1002.0,1001.0,118,14422.3,6766.9,0.46923054099458444
31,20200329,1,1002.0,1002.0,148,14440.6,14348.9,0.9936542024214118
32,20200329,1,1002.0,1004.0,138,14441.1,12569.2,0.8704051673791777
33,20200329,1,1002.0,1006.0,129,14386.2,10059.8,0.6992340044104057
34,20200329,1,1002.0,1008.0,122,14436.2,8204.5,0.5683079867402736
35,20200329,1,1002.0,901.0,113,14419.2,4445.1,0.30834515565839926
36,20200329,1,1002.0,902.0,105,14384.5,730.0,0.05061636126444741
37,20200329,1,1002.0,904.0,109,14383.1,2703.6,0.18787301520113267
38,20200329,1,1002.0,906.0,111,14426.4,3966.2,0.2750035030524606
39,20200329,1,1002.0,908.0,112,14403.3,4218.4,0.2928396119615131
40,20200329,1,1002.0,921.0,114,14358.2,5011.2,0.34892348410571705
41,20200329,1,1002.0,922.0,110,14346.0,2968.5,0.20682156226714885
42,20200329,1,1002.0,924.0,115,14385.7,5296.1,0.36788277748488885
43,20200329,1,1002.0,926.0,115,14391.5,5606.1,0.38951331408590756
44,20200329,1,1002.0,928.0,115,14359.9,5465.4,0.380791949430588
45,20200329,1,1002.0,941.0,116,14355.1,5714.5,0.3979704644705924
46,20200329,1,1002.0,942.0,123,14404.4,8422.0,0.5844891030992462
47,20200329,1,1002.0,944.0,122,14413.7,7663.3,0.5316588396504652
48,20200329,1,1002.0,946.0,120,14393.4,7238.3,0.5026151050693428
49,20200329,1,1002.0,948.0,117,14360.5,6298.8,0.4387804218723684
50,20200329,1,1002.0,961.0,118,14395.3,6430.3,0.44680563855963495
51,20200329,1,1002.0,962.0,136,14370.1,12018.3,0.8365553302074658
52,20200329,1,1002.0,964.0,130,14421.0,10262.8,0.7115429566236807
53,20200329,1,1002.0,966.0,123,14351.4,8324.9,0.5801180117567524
54,20200329,1,1002.0,968.0,120,14416.0,7335.4,0.5088326067998649
55,20200329,1,1002.0,981.0,118,14369.6,6604.9,0.459685258646222
56,20200329,1,1002.0,982.0,145,14378.1,14043.8,0.9767595061752878
57,20200329,1,1002.0,984.0,136,14422.2,12017.5,0.8332380238142347
58,20200329,1,1002.0,986.0,128,14402.8,9867.7,0.6850860539900795
59,20200329,1,1002.0,988.0,121,14396.4,7934.1,0.5510619569957663
60,20200329,1,1004.0,1001.0,130,14393.1,10642.2,0.7393387147823932
61,20200329,1,1004.0,1002.0,147,14445.5,14406.8,0.997320085381155
62,20200329,1,1004.0,1004.0,146,14409.9,14256.5,0.9893480637041332
63,20200329,1,1004.0,1006.0,143,14418.5,13496.6,0.9360748806667857
64,20200329,1,1004.0,1008.0,137,14403.6,12291.8,0.8533732438369626
65,20200329,1,1004.0,901.0,121,14408.7,7604.8,0.5277930349579869
66,20200329,1,1004.0,902.0,134,14411.1,11153.7,0.7736245488593317
67,20200329,1,1004.0,904.0,128,14348.9,9825.6,0.6848445060149483
68,20200329,1,1004.0,906.0,125,14335.0,8846.0,0.6168840415692403
69,20200329,1,1004.0,908.0,123,14429.8,8432.1,0.5844443942923638
70,20200329,1,1004.0,921.0,124,14440.8,8856.0,0.6131480260894069
71,20200329,1,1004.0,922.0,144,14431.4,13514.2,0.9363269387694364
72,20200329,1,1004.0,924.0,133,14450.3,11395.4,0.7886070690837921
73,20200329,1,1004.0,926.0,131,14396.8,10482.1,0.7280206770822814
74,20200329,1,1004.0,928.0,127,14394.6,9672.7,0.6719457075790808
75,20200329,1,1004.0,941.0,127,14494.0,9766.5,0.6738417321886735
76,20200329,1,1004.0,942.0,146,14370.8,14009.6,0.9748301131472245
77,20200329,1,1004.0,944.0,140,14476.5,12755.8,0.8811186652978981
78,20200329,1,1004.0,946.0,134,14476.2,11610.8,0.8020907966342005
79,20200329,1,1004.0,948.0,130,14356.6,10641.9,0.7412889160761922
80,20200329,1,1004.0,961.0,130,14428.6,10523.5,0.7293384752732581
81,20200329,1,1004.0,962.0,147,14429.0,14353.3,0.9947558130130488
82,20200329,1,1004.0,964.0,145,14415.2,13951.0,0.9677790883815309
83,20200329,1,1004.0,966.0,140,14352.7,12671.4,0.8828508689623851
84,20200329,1,1004.0,968.0,134,14423.6,11516.6,0.7985652194581854
85,20200329,1,1004.0,981.0,130,14353.1,10477.1,0.7299046320706046
86,20200329,1,1004.0,982.0,146,14393.7,14346.6,0.9967277918471152
87,20200329,1,1004.0,984.0,146,14366.0,14165.0,0.9859906099117106
88,20200329,1,1004.0,986.0,140,14460.7,13159.2,0.9100698564850791
89,20200329,1,1004.0,988.0,136,14417.3,12094.0,0.8387803815371331
90,20200329,1,1006.0,1001.0,140,14412.8,12869.7,0.8929924808914894
91,20200329,1,1006.0,1002.0,146,14350.9,14295.3,0.9961203436536629
92,20200329,1,1006.0,1004.0,148,14410.2,14340.8,0.995185400349083
93,20200329,1,1006.0,1006.0,146,14411.5,14205.9,0.9857366760789444
94,20200329,1,1006.0,1008.0,143,14387.8,13709.8,0.9529024055902712
95,20200329,1,1006.0,901.0,129,14406.5,10290.2,0.7142249105007838
96,20200329,1,1006.0,902.0,145,14437.3,13910.8,0.9636669313404953
97,20200329,1,1006.0,904.0,140,14343.9,12714.2,0.886562806274427
98,20200329,1,1006.0,906.0,137,14427.7,12138.7,0.8413932328725406
99,20200329,1,1006.0,908.0,134,14422.3,11483.6,0.7963775410512929
100,20200329,1,1006.0,921.0,133,14353.1,11087.8,0.7724315175437361
101,20200329,1,1006.0,922.0,146,14406.1,14238.7,0.9883449764300322
102,20200329,1,1006.0,924.0,144,14423.7,13853.6,0.960462378297853
103,20200329,1,1006.0,926.0,140,14384.7,12957.9,0.9009465590926222
104,20200329,1,1006.0,928.0,136,14392.2,12226.3,0.8494935772665866
105,20200329,1,1006.0,941.0,137,14385.6,12235.3,0.8505193448035699
106,20200329,1,1006.0,942.0,146,14391.2,14302.6,0.9938423830196879
107,20200329,1,1006.0,944.0,147,14452.2,14198.6,0.982447358313585
108,20200329,1,1006.0,946.0,142,14342.0,13496.4,0.9409796907832104
109,20200329,1,1006.0,948.0,140,14415.3,12825.5,0.889738415654412
110,20200329,1,1006.0,961.0,138,14384.8,12436.2,0.864465980157258
111,20200329,1,1006.0,962.0,147,14420.5,14357.0,0.9956000640871329
112,20200329,1,1006.0,964.0,146,14468.7,14347.1,0.9915903853511313
113,20200329,1,1006.0,966.0,144,14374.2,13890.5,0.9663350021233205
114,20200329,1,1006.0,968.0,143,14490.0,13437.7,0.9274104574117233
115,20200329,1,1006.0,981.0,139,14384.1,12627.4,0.8779538226564387
116,20200329,1,1006.0,982.0,146,14389.3,14334.9,0.9962265127411772
117,20200329,1,1006.0,984.0,147,14456.8,14374.4,0.9943002747073668
118,20200329,1,1006.0,986.0,146,14419.9,14122.9,0.9794042497105651
119,20200329,1,1006.0,988.0,142,14390.0,13588.1,0.9442750757242748
120,20200329,1,1008.0,1001.0,144,14416.7,13720.5,0.9517519495474023
121,20200329,1,1008.0,1002.0,147,14398.8,14337.6,0.9957493088858407
122,20200329,1,1008.0,1004.0,147,14420.4,14342.5,0.9945965159465724
123,20200329,1,1008.0,1006.0,147,14355.6,14242.8,0.9921396102736979
124,20200329,1,1008.0,1008.0,146,14331.3,14056.9,0.9808548840692971
125,20200329,1,1008.0,901.0,137,14378.9,12425.6,0.8642736279979608
126,20200329,1,1008.0,902.0,146,14385.4,14199.9,0.9871027151485169
127,20200329,1,1008.0,904.0,145,14390.7,13993.6,0.9724304980245202
128,20200329,1,1008.0,906.0,144,14373.6,13626.8,0.948097344767452
129,20200329,1,1008.0,908.0,140,14434.5,12933.7,0.8960244992349418
130,20200329,1,1008.0,921.0,140,14337.6,12623.2,0.8805109510155447
131,20200329,1,1008.0,922.0,146,14399.0,14267.3,0.9908648180338778
132,20200329,1,1008.0,924.0,146,14353.3,14163.9,0.986802743409368
133,20200329,1,1008.0,926.0,145,14394.9,13923.3,0.9672525267388863
134,20200329,1,1008.0,928.0,142,14404.5,13389.8,0.929533358363049
135,20200329,1,1008.0,941.0,141,14418.6,13191.8,0.9149135004768242
136,20200329,1,1008.0,942.0,147,14417.6,14331.2,0.9940040959359406
137,20200329,1,1008.0,944.0,146,14425.4,14304.2,0.9915959533453519
138,20200329,1,1008.0,946.0,146,14334.1,14061.6,0.9810000356591093
139,20200329,1,1008.0,948.0,144,14395.4,13791.0,0.95802157245244
140,20200329,1,1008.0,961.0,143,14345.0,13441.9,0.9370660905426128
141,20200329,1,1008.0,962.0,146,14365.4,14281.2,0.9941421751713684
142,20200329,1,1008.0,964.0,147,14476.0,14378.2,0.9932435404535408
143,20200329,1,1008.0,966.0,146,14401.7,14209.4,0.986650757818331
144,20200329,1,1008.0,968.0,145,14410.0,13930.4,0.9666850232565292
145,20200329,1,1008.0,981.0,143,14394.6,13572.9,0.9429107684030201
146,20200329,1,1008.0,982.0,147,14456.8,14380.4,0.994711450899274
147,20200329,1,1008.0,984.0,147,14390.1,14312.5,0.9946132258352686
148,20200329,1,1008.0,986.0,146,14358.1,14243.0,0.9919840277152321
149,20200329,1,1008.0,988.0,145,14388.2,14070.9,0.9779654292460356
150,20200329,1,901.0,1001.0,141,14371.3,13106.1,0.9119477898918993
151,20200329,1,901.0,1002.0,147,14372.1,14261.8,0.9923216324487815
152,20200329,1,901.0,1004.0,146,14374.0,14144.2,0.9840205762767331
153,20200329,1,901.0,1006.0,146,14401.2,14104.0,0.9793425034158483
154,20200329,1,901.0,1008.0,143,14346.6,13642.7,0.9509740741872303
155,20200329,1,901.0,901.0,146,14414.4,14054.5,0.9750335752697451
156,20200329,1,901.0,902.0,146,14379.3,14299.4,0.9944463491711009
157,20200329,1,901.0,904.0,147,14405.8,14308.5,0.9932550129425382
158,20200329,1,901.0,906.0,146,14448.8,14336.9,0.9922545454558691
159,20200329,1,901.0,908.0,146,14324.4,14134.0,0.9867124129922418
160,20200329,1,901.0,921.0,146,14482.3,14081.2,0.972302969436907
161,20200329,1,901.0,922.0,147,14454.6,14374.9,0.9944888598844285
162,20200329,1,901.0,924.0,146,14380.4,14298.4,0.9943054540495817
163,20200329,1,901.0,926.0,146,14313.2,14215.1,0.9931508272532531
164,20200329,1,901.0,928.0,146,14329.4,14138.1,0.9866565999072376
165,20200329,1,901.0,941.0,145,14406.8,13883.0,0.9636270512251709
166,20200329,1,901.0,942.0,147,14404.7,14332.4,0.994977779622106
167,20200329,1,901.0,944.0,147,14444.3,14345.8,0.9931796562995411
168,20200329,1,901.0,946.0,147,14455.8,14316.1,0.9903271580374614
169,20200329,1,901.0,948.0,146,14408.3,14151.8,0.9822215877976108
170,20200329,1,901.0,961.0,144,14436.4,13773.7,0.9541182622156821
171,20200329,1,901.0,962.0,146,14377.1,14280.1,0.9932588560794733
172,20200329,1,901.0,964.0,146,14389.9,14276.9,0.9921487829200135
173,20200329,1,901.0,966.0,145,14391.7,14222.4,0.988225872271504
174,20200329,1,901.0,968.0,146,14389.8,14090.0,0.9791641737279615
175,20200329,1,901.0,981.0,142,14312.5,13480.1,0.9417991370961298
176,20200329,1,901.0,982.0,147,14436.8,14332.2,0.9927509648387416
177,20200329,1,901.0,984.0,146,14411.0,14299.4,0.9922528779696161
178,20200329,1,901.0,986.0,146,14406.9,14168.6,0.983476438211985
179,20200329,1,901.0,988.0,145,14390.1,13951.8,0.9695346881860296
180,20200329,1,902.0,1001.0,112,14355.6,4317.1,0.3006575733853102
181,20200329,1,902.0,1002.0,104,14418.1,594.7,0.041216161100686086
182,20200329,1,902.0,1004.0,109,14366.5,3080.4,0.21420930046431824
183,20200329,1,902.0,1006.0,112,14393.6,4017.1,0.2791959167513372
184,20200329,1,902.0,1008.0,111,14358.1,4261.3,0.2968229460907029
185,20200329,1,902.0,901.0,118,14361.2,6772.0,0.47168437810303415
186,20200329,1,902.0,902.0,147,14380.8,14300.2,0.9943904800816854
187,20200329,1,902.0,904.0,140,14407.0,12885.7,0.8943698776437087
188,20200329,1,902.0,906.0,129,14382.9,10151.6,0.7057738953084286
189,20200329,1,902.0,908.0,122,14326.0,8152.5,0.5690012358562568
190,20200329,1,902.0,921.0,118,14453.2,6617.6,0.4578815363393242
191,20200329,1,902.0,922.0,144,14424.6,13988.7,0.9697335758696589
192,20200329,1,902.0,924.0,135,14384.1,11869.3,0.8252039877846512
193,20200329,1,902.0,926.0,127,14372.1,9809.1,0.6825491276664025
194,20200329,1,902.0,928.0,122,14343.0,8089.2,0.5639033875924373
195,20200329,1,902.0,941.0,117,14388.7,6183.6,0.4297761760711095
196,20200329,1,902.0,942.0,141,14466.7,13051.6,0.902143434368071
197,20200329,1,902.0,944.0,130,14420.4,10471.6,0.7261562502859796
198,20200329,1,902.0,946.0,123,14391.8,8598.0,0.5974370771877882
199,20200329,1,902.0,948.0,120,14394.0,7533.7,0.5235784352342373
200,20200329,1,902.0,961.0,116,14407.3,5702.6,0.3957382026659721
201,20200329,1,902.0,962.0,122,14321.3,7836.5,0.5470169017713392
202,20200329,1,902.0,964.0,121,14427.7,7808.3,0.5411298522789864
203,20200329,1,902.0,966.0,118,14341.1,6673.4,0.4654507750214221
204,20200329,1,902.0,968.0,117,14405.1,6365.2,0.4418382351502313
205,20200329,1,902.0,981.0,115,14430.3,5323.4,0.3688863325963233
206,20200329,1,902.0,982.0,112,14404.9,4029.0,0.2797838249046055
207,20200329,1,902.0,984.0,113,14374.8,4873.9,0.3389097552072998
208,20200329,1,902.0,986.0,114,14419.8,5245.3,0.3636573355730881
209,20200329,1,902.0,988.0,114,14485.2,5256.9,0.3629231288360383
210,20200329,1,904.0,1001.0,121,14327.5,7652.9,0.5341503127416652
211,20200329,1,904.0,1002.0,130,14405.5,10309.5,0.7157177749949172
212,20200329,1,904.0,1004.0,127,14413.9,9598.4,0.6659074259063515
213,20200329,1,904.0,1006.0,125,14405.9,9068.8,0.629351267859872
214,20200329,1,904.0,1008.0,122,14350.5,8042.9,0.5605239054437539
215,20200329,1,904.0,901.0,131,14377.1,10693.1,0.7437351541671078
216,20200329,1,904.0,902.0,146,14411.5,14375.9,0.997528793041971
217,20200329,1,904.0,904.0,147,14406.6,14270.8,0.9905748612458162
218,20200329,1,904.0,906.0,143,14400.4,13497.2,0.9372329184914461
219,20200329,1,904.0,908.0,136,14425.9,12016.7,0.8330267707700857
220,20200329,1,904.0,921.0,130,14411.1,10544.3,0.7318745611869927
221,20200329,1,904.0,922.0,147,14297.6,14255.5,0.9970560505367349
222,20200329,1,904.0,924.0,146,14420.6,14189.3,0.9839649470105497
223,20200329,1,904.0,926.0,142,14490.2,13284.9,0.9168407622722778
224,20200329,1,904.0,928.0,137,14368.0,12052.7,0.8388410629127874
225,20200329,1,904.0,941.0,130,14322.9,10394.6,0.7257560778151442
226,20200329,1,904.0,942.0,147,14343.9,14252.7,0.9936494595803934
227,20200329,1,904.0,944.0,144,14405.7,13910.0,0.9656105998287472
228,20200329,1,904.0,946.0,138,14395.8,12471.1,0.8663682937408638
229,20200329,1,904.0,948.0,134,14377.9,11378.4,0.7913913925277667
230,20200329,1,904.0,961.0,128,14395.5,9763.4,0.678213735078564
231,20200329,1,904.0,962.0,146,14399.1,14067.4,0.9769981996618504
232,20200329,1,904.0,964.0,141,14444.7,13110.9,0.9076785235247989
233,20200329,1,904.0,966.0,135,14345.3,11873.6,0.8276500540010779
234,20200329,1,904.0,968.0,131,14397.9,10618.4,0.7375159401643814
235,20200329,1,904.0,981.0,125,14365.0,8696.9,0.6055179231527605
236,20200329,1,904.0,982.0,142,14432.3,13286.7,0.9207082837548114
237,20200329,1,904.0,984.0,134,14437.5,11662.1,0.8076604972372351
238,20200329,1,904.0,986.0,130,14358.6,10442.0,0.7271162484683245
239,20200329,1,904.0,988.0,128,14430.5,9605.7,0.6656384220644332
240,20200329,1,906.0,1001.0,130,14317.2,10457.5,0.7304367748304121
241,20200329,1,906.0,1002.0,145,14350.9,14012.3,0.9763890312494725
242,20200329,1,906.0,1004.0,142,14404.0,13389.7,0.9295698816503787
243,20200329,1,906.0,1006.0,139,14426.9,12566.6,0.8711048627169697
244,20200329,1,906.0,1008.0,133,14416.7,11202.2,0.7769299990906136
245,20200329,1,906.0,901.0,139,14414.7,12860.1,0.8921703392607954
246,20200329,1,906.0,902.0,147,14390.7,14342.4,0.9966511753613684
247,20200329,1,906.0,904.0,147,14419.8,14341.7,0.9945857364454319
248,20200329,1,906.0,906.0,145,14406.9,14178.0,0.9841139865729088
249,20200329,1,906.0,908.0,144,14438.9,13724.8,0.9505381750875774
250,20200329,1,906.0,921.0,139,14356.6,12667.6,0.8823656938635926
251,20200329,1,906.0,922.0,146,14424.1,14370.0,0.9962524976988245
252,20200329,1,906.0,924.0,147,14360.0,14268.9,0.993654020091421
253,20200329,1,906.0,926.0,146,14407.0,14111.5,0.979489067643447
254,20200329,1,906.0,928.0,144,14415.7,13578.9,0.9419914513404029
255,20200329,1,906.0,941.0,138,14362.8,12573.1,0.8755518710258204
256,20200329,1,906.0,942.0,147,14470.4,14402.4,0.9952886487487721
257,20200329,1,906.0,944.0,147,14377.6,14237.4,0.9902547655388035
258,20200329,1,906.0,946.0,145,14474.6,14029.8,0.969257551329689
259,20200329,1,906.0,948.0,141,14429.7,13206.0,0.9151612321952797
260,20200329,1,906.0,961.0,136,14386.7,12034.2,0.8364758791723566
261,20200329,1,906.0,962.0,147,14416.9,14318.5,0.9931680287941189
262,20200329,1,906.0,964.0,146,14430.5,14234.3,0.9864033804651596
263,20200329,1,906.0,966.0,142,14443.2,13576.9,0.940022666994909
264,20200329,1,906.0,968.0,139,14359.9,12920.2,0.8997511068649869
265,20200329,1,906.0,981.0,133,14389.2,11388.0,0.791329384316059
266,20200329,1,906.0,982.0,147,14458.4,14297.9,0.9888979575148342
267,20200329,1,906.0,984.0,145,14348.1,13860.6,0.9660030798671014
268,20200329,1,906.0,986.0,141,14359.0,12982.4,0.9041433013907024
269,20200329,1,906.0,988.0,136,14372.7,12150.8,0.8454070705289087
270,20200329,1,908.0,1001.0,138,14469.4,12186.8,0.8422271536825725
271,20200329,1,908.0,1002.0,147,14393.6,14230.5,0.9886677666551513
272,20200329,1,908.0,1004.0,145,14396.8,14055.7,0.9763073630434251
273,20200329,1,908.0,1006.0,143,14444.1,13541.5,0.9375173303810863
274,20200329,1,908.0,1008.0,139,14426.6,12717.4,0.8816627498110646
275,20200329,1,908.0,901.0,143,14399.7,13676.5,0.949760228220135
276,20200329,1,908.0,902.0,146,14351.6,14279.1,0.9949548705153293
277,20200329,1,908.0,904.0,147,14417.8,14343.2,0.9948235955943883
278,20200329,1,908.0,906.0,145,14413.8,14300.9,0.9921642849681505
279,20200329,1,908.0,908.0,145,14310.9,14027.7,0.9802054272386524
280,20200329,1,908.0,921.0,144,14441.6,13671.3,0.9466621140218067
281,20200329,1,908.0,922.0,147,14367.6,14301.2,0.995380989610295
282,20200329,1,908.0,924.0,147,14455.5,14362.7,0.9935793233847232
283,20200329,1,908.0,926.0,146,14331.2,14214.9,0.9918843021989542
284,20200329,1,908.0,928.0,146,14371.2,14082.8,0.9799475675674618
285,20200329,1,908.0,941.0,143,14352.9,13494.2,0.9401677228042524
286,20200329,1,908.0,942.0,147,14404.7,14327.5,0.9946371717579293
287,20200329,1,908.0,944.0,147,14446.7,14350.5,0.9933391946245663
288,20200329,1,908.0,946.0,146,14395.2,14192.2,0.9858997380113174
289,20200329,1,908.0,948.0,145,14425.5,13983.1,0.9693233719386146
290,20200329,1,908.0,961.0,141,14405.7,13186.1,0.915322075479344
291,20200329,1,908.0,962.0,146,14395.3,14305.0,0.993720742743162
292,20200329,1,908.0,964.0,146,14371.2,14230.2,0.9901920693189629
293,20200329,1,908.0,966.0,145,14368.4,14079.6,0.9798851691121632
294,20200329,1,908.0,968.0,143,14381.8,13669.6,0.9505199893233272
295,20200329,1,908.0,981.0,140,14415.8,12811.1,0.8886684907933562
296,20200329,1,908.0,982.0,147,14396.4,14275.9,0.9916205612426052
297,20200329,1,908.0,984.0,146,14400.7,14190.8,0.985431557776552
298,20200329,1,908.0,986.0,145,14346.6,13792.6,0.9613459038104644
299,20200329,1,908.0,988.0,141,14454.3,13292.4,0.9196036174113159
300,20200329,1,921.0,1001.0,142,14315.0,13369.9,0.9340098837434168
301,20200329,1,921.0,1002.0,147,14399.0,14271.8,0.9911713821345849
302,20200329,1,921.0,1004.0,147,14434.4,14295.2,0.990353688464198
303,20200329,1,921.0,1006.0,146,14434.8,14216.1,0.984851014554866
304,20200329,1,921.0,1008.0,145,14406.0,13959.0,0.9689806162977076
305,20200329,1,921.0,901.0,145,14417.2,13978.7,0.9695773072580842
306,20200329,1,921.0,902.0,147,14382.3,14306.8,0.9947513612142851
307,20200329,1,921.0,904.0,146,14384.2,14292.0,0.9935908473689808
308,20200329,1,921.0,906.0,146,14355.5,14247.7,0.9924882019052828
309,20200329,1,921.0,908.0,147,14465.8,14290.0,0.9878556911100826
310,20200329,1,921.0,921.0,146,14464.6,14086.1,0.9738206858232736
311,20200329,1,921.0,922.0,148,14403.8,14326.7,0.9946457017128848
312,20200329,1,921.0,924.0,147,14371.3,14272.0,0.9930934109619265
313,20200329,1,921.0,926.0,147,14448.1,14339.0,0.9924493613293537
314,20200329,1,921.0,928.0,146,14402.1,14227.3,0.9878676663400385
315,20200329,1,921.0,941.0,146,14425.1,14058.4,0.9745628388507098
316,20200329,1,921.0,942.0,147,14433.1,14355.7,0.9946413311204656
317,20200329,1,921.0,944.0,147,14352.0,14266.3,0.9940286739469748
318,20200329,1,921.0,946.0,147,14411.4,14305.4,0.992648961134873
319,20200329,1,921.0,948.0,146,14378.9,14193.1,0.9870770374912909
320,20200329,1,921.0,961.0,145,14369.9,13897.1,0.9671053750703426
321,20200329,1,921.0,962.0,146,14360.4,14271.1,0.9937733128076702
322,20200329,1,921.0,964.0,146,14426.6,14329.8,0.993295097323595
323,20200329,1,921.0,966.0,146,14373.3,14252.4,0.9915857258109776
324,20200329,1,921.0,968.0,146,14409.0,14167.1,0.9831903120107505
325,20200329,1,921.0,981.0,144,14397.2,13789.7,0.9578206652280494
326,20200329,1,921.0,982.0,146,14342.7,14222.5,0.991617376930024
327,20200329,1,921.0,984.0,146,14449.6,14317.5,0.9908479874133835
328,20200329,1,921.0,986.0,146,14402.6,14227.4,0.9878571290900103
329,20200329,1,921.0,988.0,145,14433.0,14129.9,0.9789940310078039
330,20200329,1,922.0,1001.0,114,14412.5,5052.0,0.3504968660693009
331,20200329,1,922.0,1002.0,109,14428.4,2824.8,0.19544536759377665
332,20200329,1,922.0,1004.0,113,14439.4,4640.6,0.32120293846054593
333,20200329,1,922.0,1006.0,114,14463.5,5084.9,0.35153911863808907
334,20200329,1,922.0,1008.0,114,14334.0,5479.5,0.3822350604367928
335,20200329,1,922.0,901.0,118,14377.3,6588.7,0.4582103186809704
336,20200329,1,922.0,902.0,145,14397.7,14075.2,0.9775742928944908
337,20200329,1,922.0,904.0,137,14406.9,12178.2,0.8453492750054021
338,20200329,1,922.0,906.0,127,14448.8,9652.7,0.6680311487822347
339,20200329,1,922.0,908.0,122,14367.7,7869.6,0.5477819018390226
340,20200329,1,922.0,921.0,118,14371.7,6713.9,0.4672135942584533
341,20200329,1,922.0,922.0,147,14403.8,14315.8,0.9938866100427232
342,20200329,1,922.0,924.0,139,14445.0,12754.1,0.8827623501269443
343,20200329,1,922.0,926.0,129,14401.3,10156.6,0.7052484691720335
344,20200329,1,922.0,928.0,123,14357.1,8414.8,0.5860150474982365
345,20200329,1,922.0,941.0,118,14434.7,6680.7,0.4628045177982624
346,20200329,1,922.0,942.0,146,14388.2,14019.3,0.9743812088598542
347,20200329,1,922.0,944.0,137,14335.3,12103.3,0.8444580430871996
348,20200329,1,922.0,946.0,128,14509.3,9755.6,0.6722783841389337
349,20200329,1,922.0,948.0,121,14375.0,7615.3,0.5296908765306827
350,20200329,1,922.0,961.0,117,14389.5,6287.3,0.43687982695567956
351,20200329,1,922.0,962.0,138,14425.9,12472.6,0.8647424451146366
352,20200329,1,922.0,964.0,128,14395.5,9822.9,0.6823407195509347
353,20200329,1,922.0,966.0,124,14350.5,8581.9,0.598055337544064
354,20200329,1,922.0,968.0,121,14482.1,7796.0,0.5383735001159783
355,20200329,1,922.0,981.0,116,14442.3,5844.6,0.4047628105523475
356,20200329,1,922.0,982.0,123,14381.6,8329.6,0.5790456800849847
357,20200329,1,922.0,984.0,122,14392.6,7854.4,0.5455164293659163
358,20200329,1,922.0,986.0,119,14378.7,7154.3,0.4975458200000782
359,20200329,1,922.0,988.0,118,14435.5,6515.0,0.4512995021719875
360,20200329,1,924.0,1001.0,124,14380.7,8834.3,0.6142545491896829
361,20200329,1,924.0,1002.0,142,14379.9,13217.7,0.9191964338695169
362,20200329,1,924.0,1004.0,134,14443.5,11355.6,0.786260002829825
363,20200329,1,924.0,1006.0,131,14424.5,10709.2,0.7424721207519958
364,20200329,1,924.0,1008.0,128,14385.6,9926.5,0.6900990280461048
365,20200329,1,924.0,901.0,132,14422.1,10874.3,0.7540274365676477
366,20200329,1,924.0,902.0,147,14456.0,14401.2,0.9962026826497363
367,20200329,1,924.0,904.0,146,14427.6,14220.7,0.9856580399974277
368,20200329,1,924.0,906.0,142,14436.1,13358.7,0.9252909538296447
369,20200329,1,924.0,908.0,135,14426.7,11842.1,0.8208744227274194
370,20200329,1,924.0,921.0,131,14488.7,10690.5,0.7378657255723206
371,20200329,1,924.0,922.0,147,14471.4,14431.5,0.9972452067124609
372,20200329,1,924.0,924.0,147,14374.7,14243.1,0.9908463056407761
373,20200329,1,924.0,926.0,142,14335.5,13517.4,0.9429075889749454
374,20200329,1,924.0,928.0,136,14386.2,11949.1,0.830548564440823
375,20200329,1,924.0,941.0,130,14370.1,10566.1,0.7353138803226504
376,20200329,1,924.0,942.0,147,14363.7,14317.2,0.99676809226545
377,20200329,1,924.0,944.0,145,14396.7,14086.1,0.9784358614174012
378,20200329,1,924.0,946.0,141,14361.9,13167.9,0.9168747342606058
379,20200329,1,924.0,948.0,136,14442.2,12091.7,0.8373769091816721
380,20200329,1,924.0,961.0,129,14362.3,10260.3,0.7144466993503513
381,20200329,1,924.0,962.0,147,14410.2,14329.7,0.9944203254897463
382,20200329,1,924.0,964.0,144,14394.3,13858.6,0.962775416815345
383,20200329,1,924.0,966.0,139,14411.7,12698.0,0.8810982686050709
384,20200329,1,924.0,968.0,134,14362.8,11419.2,0.7951415024386174
385,20200329,1,924.0,981.0,127,14437.7,9672.4,0.6699274675177761
386,20200329,1,924.0,982.0,146,14381.7,14124.4,0.9821277321205812
387,20200329,1,924.0,984.0,140,14450.4,12804.2,0.8859317589775328
388,20200329,1,924.0,986.0,135,14344.7,11618.5,0.8101796789750553
389,20200329,1,924.0,988.0,131,14399.5,10629.7,0.7382704939629644
390,20200329,1,926.0,1001.0,133,14409.7,11376.4,0.7894509370911711
391,20200329,1,926.0,1002.0,146,14342.1,14184.5,0.9890116506645616
392,20200329,1,926.0,1004.0,144,14375.9,13811.6,0.9608125277453606
393,20200329,1,926.0,1006.0,140,14391.7,12871.4,0.8944398859262723
394,20200329,1,926.0,1008.0,137,14481.7,12292.8,0.8488235491469238
395,20200329,1,926.0,901.0,139,14415.4,12645.3,0.8772132039283193
396,20200329,1,926.0,902.0,146,14402.6,14334.4,0.99526109335244
397,20200329,1,926.0,904.0,146,14330.4,14246.8,0.9941613847623616
398,20200329,1,926.0,906.0,146,14456.5,14161.8,0.979624080467499
399,20200329,1,926.0,908.0,143,14442.4,13591.9,0.9410767554512807
400,20200329,1,926.0,921.0,140,14384.9,12770.3,0.8876718660461005
401,20200329,1,926.0,922.0,147,14416.5,14362.8,0.9962746368371148
402,20200329,1,926.0,924.0,147,14462.2,14388.0,0.9948680766003595
403,20200329,1,926.0,926.0,145,14389.7,14176.0,0.9851436563347896
404,20200329,1,926.0,928.0,143,14406.9,13642.6,0.9469428313161121
405,20200329,1,926.0,941.0,139,14347.6,12766.0,0.8897551674340078
406,20200329,1,926.0,942.0,146,14353.2,14293.9,0.9958706601838673
407,20200329,1,926.0,944.0,148,14478.4,14390.0,0.9938947238817617
408,20200329,1,926.0,946.0,145,14409.9,14119.3,0.9798290164870543
409,20200329,1,926.0,948.0,143,14367.1,13617.4,0.9478316121275764
410,20200329,1,926.0,961.0,138,14434.4,12448.5,0.8624094865615467
411,20200329,1,926.0,962.0,147,14386.7,14338.2,0.9966288177152094
412,20200329,1,926.0,964.0,147,14456.6,14332.7,0.9914238320918363
413,20200329,1,926.0,966.0,144,14409.3,13931.2,0.9667753528604612
414,20200329,1,926.0,968.0,142,14428.6,13286.1,0.9207823023646828
415,20200329,1,926.0,981.0,136,14354.4,11968.9,0.8337823447718746
416,20200329,1,926.0,982.0,146,14450.6,14366.1,0.9941577356758632
417,20200329,1,926.0,984.0,145,14434.8,14147.6,0.9800798641924147
418,20200329,1,926.0,986.0,143,14412.7,13583.8,0.9424841161650814
419,20200329,1,926.0,988.0,140,14447.0,12914.4,0.8938449872119373
420,20200329,1,928.0,1001.0,140,14453.1,12915.4,0.8935973778122692
421,20200329,1,928.0,1002.0,146,14412.5,14270.6,0.9901573145002047
422,20200329,1,928.0,1004.0,146,14349.3,14133.2,0.9848953498598464
423,20200329,1,928.0,1006.0,145,14463.5,14045.0,0.9710751475982171
424,20200329,1,928.0,1008.0,142,14388.8,13364.0,0.9287509750082051
425,20200329,1,928.0,901.0,144,14404.2,13674.1,0.9493666312370296
426,20200329,1,928.0,902.0,147,14388.7,14326.0,0.9956421349954846
427,20200329,1,928.0,904.0,147,14362.3,14280.4,0.9942938991939311
428,20200329,1,928.0,906.0,146,14451.0,14326.0,0.9913469274941132
429,20200329,1,928.0,908.0,145,14394.0,14070.4,0.9775149720626388
430,20200329,1,928.0,921.0,143,14478.5,13670.8,0.9442303870998316
431,20200329,1,928.0,922.0,147,14388.9,14334.4,0.9962128588477027
432,20200329,1,928.0,924.0,147,14367.3,14286.3,0.9943618623557443
433,20200329,1,928.0,926.0,146,14377.5,14259.9,0.9918196094884006
434,20200329,1,928.0,928.0,146,14351.4,14062.8,0.9798960131649516
435,20200329,1,928.0,941.0,143,14376.7,13616.6,0.9471190731486704
436,20200329,1,928.0,942.0,147,14369.4,14297.7,0.9950138180012692
437,20200329,1,928.0,944.0,146,14410.5,14340.7,0.9951551517556636
438,20200329,1,928.0,946.0,147,14433.2,14292.4,0.9902608565187883
439,20200329,1,928.0,948.0,145,14409.4,14051.0,0.9751143151171571
440,20200329,1,928.0,961.0,141,14397.9,13355.3,0.9276493322182583
441,20200329,1,928.0,962.0,146,14410.9,14322.1,0.9938381830043903
442,20200329,1,928.0,964.0,146,14404.1,14307.5,0.9932960908044789
443,20200329,1,928.0,966.0,146,14349.6,14155.1,0.9864450185016412
444,20200329,1,928.0,968.0,144,14364.5,13976.4,0.9729849712703622
445,20200329,1,928.0,981.0,142,14419.4,13204.6,0.9157991089134047
446,20200329,1,928.0,982.0,147,14435.4,14330.5,0.992727011912848
447,20200329,1,928.0,984.0,147,14351.3,14219.9,0.9908368324965299
448,20200329,1,928.0,986.0,146,14423.9,14167.6,0.9822206836101921
449,20200329,1,928.0,988.0,143,14428.0,13763.4,0.9539404750632036
450,20200329,1,941.0,1001.0,144,14403.9,13787.2,0.9571572330337291
451,20200329,1,941.0,1002.0,146,14399.7,14298.2,0.9929423757671538
452,20200329,1,941.0,1004.0,148,14405.1,14290.0,0.9920116227639884
453,20200329,1,941.0,1006.0,147,14460.4,14300.7,0.988976743995102
454,20200329,1,941.0,1008.0,146,14453.9,14083.1,0.9743830099268266
455,20200329,1,941.0,901.0,145,14424.2,13949.7,0.9670739094317323
456,20200329,1,941.0,902.0,147,14407.4,14313.6,0.9934939682114953
457,20200329,1,941.0,904.0,146,14441.8,14334.5,0.9925674693891798
458,20200329,1,941.0,906.0,146,14369.2,14243.8,0.9912750076157655
459,20200329,1,941.0,908.0,146,14380.7,14146.9,0.9837594389227184
460,20200329,1,941.0,921.0,145,14339.9,13937.8,0.9719814223037891
461,20200329,1,941.0,922.0,147,14411.0,14317.8,0.9935449562791184
462,20200329,1,941.0,924.0,148,14415.7,14324.6,0.9936785693676373
463,20200329,1,941.0,926.0,146,14414.2,14291.0,0.9914640822156354
464,20200329,1,941.0,928.0,146,14406.1,14226.9,0.9875598908952975
465,20200329,1,941.0,941.0,146,14402.0,14028.3,0.9740451216844541
466,20200329,1,941.0,942.0,147,14389.1,14293.9,0.9933791980037571
467,20200329,1,941.0,944.0,146,14398.9,14312.9,0.9940206926059947
468,20200329,1,941.0,946.0,146,14348.7,14236.4,0.9921755280676582
469,20200329,1,941.0,948.0,146,14320.4,14127.4,0.9865172320586064
470,20200329,1,941.0,961.0,145,14468.7,14029.0,0.9696288561971599
471,20200329,1,941.0,962.0,148,14488.0,14408.3,0.9945002787559014
472,20200329,1,941.0,964.0,146,14391.1,14306.2,0.9941048483067245
473,20200329,1,941.0,966.0,147,14397.5,14296.9,0.9930141664584543
474,20200329,1,941.0,968.0,146,14308.1,14137.5,0.9880762254401431
475,20200329,1,941.0,981.0,144,14377.3,13886.3,0.9658551500785965
476,20200329,1,941.0,982.0,146,14467.3,14393.2,0.9948732042268602
477,20200329,1,941.0,984.0,146,14367.5,14263.4,0.992760101773084
478,20200329,1,941.0,986.0,146,14371.0,14245.6,0.9912707096635656
479,20200329,1,941.0,988.0,146,14400.7,14170.0,0.983979100113268
480,20200329,1,942.0,1001.0,116,14371.1,5829.8,0.4057111491338869
481,20200329,1,942.0,1002.0,125,14379.6,8785.3,0.6104758156853389
482,20200329,1,942.0,1004.0,121,14387.6,7580.4,0.5269258268816241
483,20200329,1,942.0,1006.0,119,14374.4,7240.7,0.5037196144663912
484,20200329,1,942.0,1008.0,117,14373.6,6377.5,0.44361844646807
485,20200329,1,942.0,901.0,117,14396.6,6439.2,0.44744445655816306
486,20200329,1,942.0,902.0,139,14374.3,12662.6,0.8808730659446118
487,20200329,1,942.0,904.0,127,14444.7,9846.1,0.6816812842284912
488,20200329,1,942.0,906.0,125,14423.3,8926.9,0.6189435586614823
489,20200329,1,942.0,908.0,120,14467.1,7470.4,0.5164726379411101
490,20200329,1,942.0,921.0,117,14367.7,6507.4,0.45293548970842074
491,20200329,1,942.0,922.0,146,14519.2,14193.4,0.9775391448575348
492,20200329,1,942.0,924.0,135,14432.9,11744.9,0.8138926166412525
493,20200329,1,942.0,926.0,127,14420.6,9834.3,0.6819252468709505
494,20200329,1,942.0,928.0,122,14457.8,8119.9,0.5616980792797543
495,20200329,1,942.0,941.0,119,14446.4,6945.7,0.48084901284523796
496,20200329,1,942.0,942.0,146,14365.1,14274.7,0.9937159803596229
497,20200329,1,942.0,944.0,139,14476.5,12852.0,0.8878683198693167
498,20200329,1,942.0,946.0,129,14434.1,10252.4,0.7103698642201146
499,20200329,1,942.0,948.0,123,14392.7,8288.1,0.5758508540742512
500,20200329,1,942.0,961.0,118,14403.9,6790.4,0.471512855418344
501,20200329,1,942.0,962.0,144,14398.6,14045.7,0.9754691331448084
502,20200329,1,942.0,964.0,136,14384.5,12023.3,0.8357216051536323
503,20200329,1,942.0,966.0,128,14423.8,9859.9,0.6836045267844734
504,20200329,1,942.0,968.0,123,14402.0,8216.4,0.5706107414264239
505,20200329,1,942.0,981.0,118,14408.6,6337.1,0.4398171654585677
506,20200329,1,942.0,982.0,139,14406.9,12665.5,0.8792720144999511
507,20200329,1,942.0,984.0,128,14352.0,10029.3,0.6986958751676458
508,20200329,1,942.0,986.0,124,14471.1,8716.2,0.6023353650394345
509,20200329,1,942.0,988.0,119,14456.0,7324.8,0.5065805920722986
510,20200329,1,944.0,1001.0,127,14448.7,9644.8,0.6675271976835193
511,20200329,1,944.0,1002.0,145,14361.3,14095.0,0.9814658860322701
512,20200329,1,944.0,1004.0,141,14422.6,13031.3,0.9034950442832429
513,20200329,1,944.0,1006.0,134,14390.5,11531.7,0.8014374764554979
514,20200329,1,944.0,1008.0,130,14482.2,10534.3,0.7274833222372009
515,20200329,1,944.0,901.0,129,14403.0,10213.7,0.7092053931632425
516,20200329,1,944.0,902.0,146,14371.8,14304.0,0.9952782797731574
517,20200329,1,944.0,904.0,144,14382.4,13750.9,0.9560664396433722
518,20200329,1,944.0,906.0,139,14439.3,12691.2,0.8788793440541356
519,20200329,1,944.0,908.0,134,14424.2,11645.2,0.8073859361683716
520,20200329,1,944.0,921.0,130,14397.7,10613.9,0.7372628752184468
521,20200329,1,944.0,922.0,147,14457.0,14407.0,0.9965473493538047
522,20200329,1,944.0,924.0,146,14391.6,14111.3,0.9805185060426144
523,20200329,1,944.0,926.0,142,14426.5,13375.3,0.9271442649846353
524,20200329,1,944.0,928.0,136,14396.5,11912.1,0.8275046810003925
525,20200329,1,944.0,941.0,131,14416.4,10726.1,0.7440505140124076
526,20200329,1,944.0,942.0,148,14438.9,14389.6,0.9965876608467383
527,20200329,1,944.0,944.0,146,14417.9,14254.1,0.9886532803473399
528,20200329,1,944.0,946.0,143,14414.2,13492.1,0.9360330979228987
529,20200329,1,944.0,948.0,136,14348.2,11959.5,0.8335786327946488
530,20200329,1,944.0,961.0,132,14401.5,10675.4,0.7412196873334945
531,20200329,1,944.0,962.0,146,14391.9,14348.4,0.9969746042225418
532,20200329,1,944.0,964.0,146,14446.7,14160.0,0.9801395660774744
533,20200329,1,944.0,966.0,141,14377.1,13187.4,0.9172383166697109
534,20200329,1,944.0,968.0,136,14385.1,11875.0,0.8256619757367478
535,20200329,1,944.0,981.0,130,14372.5,10395.4,0.7233062405660958
536,20200329,1,944.0,982.0,147,14373.7,14260.4,0.9921336371387568
537,20200329,1,944.0,984.0,144,14384.7,13709.6,0.9531072178336109
538,20200329,1,944.0,986.0,140,14340.7,12664.5,0.883131464128246
539,20200329,1,944.0,988.0,135,14391.0,11553.5,0.8028094334510782
540,20200329,1,946.0,1001.0,136,14396.2,12006.5,0.8339110880710864
541,20200329,1,946.0,1002.0,145,14346.5,14256.8,0.9937556924642073
542,20200329,1,946.0,1004.0,146,14387.9,14067.9,0.9777829880503258
543,20200329,1,946.0,1006.0,144,14473.1,13743.2,0.9495693515818058
544,20200329,1,946.0,1008.0,139,14372.8,12584.6,0.8755061881191979
545,20200329,1,946.0,901.0,138,14434.9,12579.6,0.8714283182612261
546,20200329,1,946.0,902.0,147,14380.8,14306.1,0.9948072830615471
547,20200329,1,946.0,904.0,146,14381.3,14257.1,0.9913664931671686
548,20200329,1,946.0,906.0,145,14420.7,14037.4,0.9734052060819567
549,20200329,1,946.0,908.0,141,14366.7,13140.8,0.9146773090635971
550,20200329,1,946.0,921.0,139,14432.7,12697.2,0.879736010539251
551,20200329,1,946.0,922.0,147,14421.7,14360.1,0.9957223157091664
552,20200329,1,946.0,924.0,147,14429.8,14357.4,0.9949866207333905
553,20200329,1,946.0,926.0,146,14425.4,14172.2,0.9824486896654104
554,20200329,1,946.0,928.0,143,14380.9,13530.4,0.9408725784006842
555,20200329,1,946.0,941.0,139,14444.7,12785.0,0.8850592808871148
556,20200329,1,946.0,942.0,147,14391.6,14341.9,0.9965440264663487
557,20200329,1,946.0,944.0,147,14367.0,14297.4,0.9951521359327871
558,20200329,1,946.0,946.0,146,14380.1,14115.8,0.981616013361035
559,20200329,1,946.0,948.0,143,14364.8,13658.5,0.9508473407374052
560,20200329,1,946.0,961.0,138,14420.2,12675.0,0.8789810710916143
561,20200329,1,946.0,962.0,146,14392.4,14338.8,0.9962753869079071
562,20200329,1,946.0,964.0,148,14450.5,14372.4,0.9945983077325454
563,20200329,1,946.0,966.0,145,14429.0,14126.9,0.9790807292618254
564,20200329,1,946.0,968.0,143,14384.6,13583.5,0.9443035173362044
565,20200329,1,946.0,981.0,138,14412.9,12476.3,0.8656154717639891
566,20200329,1,946.0,982.0,147,14421.5,14339.8,0.9943373710981671
567,20200329,1,946.0,984.0,146,14391.6,14273.3,0.9917687396386649
568,20200329,1,946.0,986.0,144,14369.7,13861.1,0.9645816919408734
569,20200329,1,946.0,988.0,141,14436.6,13193.4,0.9138915851615084
570,20200329,1,948.0,1001.0,141,14426.4,13226.2,0.9167959481006316
571,20200329,1,948.0,1002.0,146,14372.0,14271.6,0.9930133728964027
572,20200329,1,948.0,1004.0,147,14409.4,14296.9,0.9921942141641716
573,20200329,1,948.0,1006.0,145,14405.6,14100.0,0.9787779570379733
574,20200329,1,948.0,1008.0,144,14361.4,13643.3,0.950032667978854
575,20200329,1,948.0,901.0,143,14358.7,13422.5,0.9347891249950727
576,20200329,1,948.0,902.0,146,14400.0,14326.5,0.9948942995135794
577,20200329,1,948.0,904.0,146,14414.1,14311.9,0.9929118723583217
578,20200329,1,948.0,906.0,146,14423.1,14251.5,0.9881016567575867
579,20200329,1,948.0,908.0,145,14406.7,13960.4,0.969033856336176
580,20200329,1,948.0,921.0,144,14457.9,13716.3,0.9487040832862711
581,20200329,1,948.0,922.0,147,14372.9,14298.2,0.9948021934069488
582,20200329,1,948.0,924.0,148,14411.4,14336.5,0.9948047975716323
583,20200329,1,948.0,926.0,146,14404.8,14266.6,0.9904148053245067
584,20200329,1,948.0,928.0,145,14429.5,14059.2,0.9743626797283236
585,20200329,1,948.0,941.0,144,14379.3,13651.1,0.9493331261395666
586,20200329,1,948.0,942.0,147,14415.6,14345.7,0.9951590276945733
587,20200329,1,948.0,944.0,146,14379.6,14302.3,0.9946198541577196
588,20200329,1,948.0,946.0,147,14441.7,14318.8,0.9914892416840528
589,20200329,1,948.0,948.0,146,14447.3,14159.3,0.9800532209753599
590,20200329,1,948.0,961.0,143,14391.6,13612.0,0.945843000883331
591,20200329,1,948.0,962.0,147,14441.5,14381.0,0.9958163685268895
592,20200329,1,948.0,964.0,147,14374.8,14293.5,0.9943409661388356
593,20200329,1,948.0,966.0,146,14423.0,14291.3,0.990872087736671
594,20200329,1,948.0,968.0,146,14405.5,14087.5,0.9779164840981641
595,20200329,1,948.0,981.0,142,14394.0,13516.7,0.9390553704007992
596,20200329,1,948.0,982.0,146,14376.4,14311.6,0.9954884665709676
597,20200329,1,948.0,984.0,146,14309.1,14208.9,0.9929997831802897
598,20200329,1,948.0,986.0,146,14404.7,14229.6,0.987826234997861
599,20200329,1,948.0,988.0,145,14399.6,13935.4,0.9677625978346838
600,20200329,1,961.0,1001.0,145,14378.9,13943.3,0.9696804473237662
601,20200329,1,961.0,1002.0,146,14381.5,14301.2,0.9944165606895936
602,20200329,1,961.0,1004.0,146,14409.2,14307.2,0.9929230886444914
603,20200329,1,961.0,1006.0,147,14443.7,14328.1,0.991994879453187
604,20200329,1,961.0,1008.0,145,14343.6,14106.6,0.9834758094880403
605,20200329,1,961.0,901.0,143,14423.9,13691.1,0.9492272181271888
606,20200329,1,961.0,902.0,147,14406.3,14302.5,0.9927948911030742
607,20200329,1,961.0,904.0,147,14426.1,14306.9,0.9917393607153461
608,20200329,1,961.0,906.0,146,14379.7,14185.2,0.9864928513171234
609,20200329,1,961.0,908.0,145,14353.4,14041.2,0.9782540520819836
610,20200329,1,961.0,921.0,145,14372.6,13890.6,0.9664800022835026
611,20200329,1,961.0,922.0,147,14420.6,14340.2,0.9944248885021748
612,20200329,1,961.0,924.0,146,14416.8,14315.7,0.9929803656524481
613,20200329,1,961.0,926.0,147,14422.0,14296.1,0.9912714561181142
614,20200329,1,961.0,928.0,146,14352.0,14077.1,0.9808283539604691
615,20200329,1,961.0,941.0,145,14391.4,13970.2,0.9707379758772172
616,20200329,1,961.0,942.0,147,14367.7,14281.0,0.9939617554509226
617,20200329,1,961.0,944.0,147,14405.3,14326.0,0.9944928918380281
618,20200329,1,961.0,946.0,147,14445.7,14333.1,0.9922047438114511
619,20200329,1,961.0,948.0,146,14444.2,14250.1,0.9865609238257823
620,20200329,1,961.0,961.0,145,14374.0,14014.7,0.9749990701269164
621,20200329,1,961.0,962.0,147,14370.1,14259.7,0.9923041853906426
622,20200329,1,961.0,964.0,146,14380.0,14291.1,0.993812235813602
623,20200329,1,961.0,966.0,147,14406.0,14309.5,0.9933043774555381
624,20200329,1,961.0,968.0,146,14413.2,14245.7,0.9883780757834597
625,20200329,1,961.0,981.0,145,14372.5,13992.1,0.9735451389267891
626,20200329,1,961.0,982.0,146,14346.9,14258.6,0.9938284590634623
627,20200329,1,961.0,984.0,147,14437.6,14345.6,0.9936328630156896
628,20200329,1,961.0,986.0,147,14382.6,14263.9,0.9917383598413807
629,20200329,1,961.0,988.0,146,14334.3,14120.3,0.985084838502875
630,20200329,1,962.0,1001.0,117,14413.7,6406.8,0.4445512643279826
631,20200329,1,962.0,1002.0,140,14412.3,12825.1,0.889935923492063
632,20200329,1,962.0,1004.0,129,14418.4,10186.8,0.7065756269653158
633,20200329,1,962.0,1006.0,125,14401.5,9126.3,0.6337585387719821
634,20200329,1,962.0,1008.0,120,14426.1,7434.3,0.5153732826682149
635,20200329,1,962.0,901.0,115,14382.7,5873.1,0.40843612703235604
636,20200329,1,962.0,902.0,123,14424.2,8349.5,0.5792379839047903
637,20200329,1,962.0,904.0,120,14421.0,7607.9,0.5277591210766697
638,20200329,1,962.0,906.0,120,14416.1,7311.4,0.5071053818079172
639,20200329,1,962.0,908.0,117,14386.6,6198.9,0.4310160842685898
640,20200329,1,962.0,921.0,117,14494.0,6405.9,0.4419715401508622
641,20200329,1,962.0,922.0,137,14365.1,12075.3,0.8407962488121017
642,20200329,1,962.0,924.0,131,14428.3,10792.9,0.747889938951479
643,20200329,1,962.0,926.0,123,14405.1,8445.4,0.5863741487893679
644,20200329,1,962.0,928.0,120,14425.5,7393.9,0.5125019846234374
645,20200329,1,962.0,941.0,118,14422.9,6631.6,0.459936158506878
646,20200329,1,962.0,942.0,145,14387.7,13897.3,0.9659551117552823
647,20200329,1,962.0,944.0,135,14433.2,11850.8,0.8210700500726166
648,20200329,1,962.0,946.0,128,14409.9,9966.9,0.6917100758061828
649,20200329,1,962.0,948.0,122,14305.3,7992.4,0.5587535995082665
650,20200329,1,962.0,961.0,118,14368.7,6561.4,0.4565522124461962
651,20200329,1,962.0,962.0,146,14426.5,14361.1,0.9954740323884568
652,20200329,1,962.0,964.0,140,14453.8,12803.9,0.8858617430365191
653,20200329,1,962.0,966.0,130,14374.1,10480.9,0.7290347962724383
654,20200329,1,962.0,968.0,123,14343.3,8279.8,0.577287541362999
655,20200329,1,962.0,981.0,118,14382.6,6677.6,0.46426667510126307
656,20200329,1,962.0,982.0,145,14425.2,14099.3,0.977304779282283
657,20200329,1,962.0,984.0,135,14337.4,12062.7,0.8412476719302457
658,20200329,1,962.0,986.0,128,14505.7,9987.2,0.6885231365058107
659,20200329,1,962.0,988.0,122,14373.1,8062.6,0.5609944353669405
660,20200329,1,964.0,1001.0,130,14350.5,10407.2,0.7251624690437115
661,20200329,1,964.0,1002.0,146,14269.8,14179.3,0.9936545654046526
662,20200329,1,964.0,1004.0,144,14423.9,13769.9,0.9547365064507061
663,20200329,1,964.0,1006.0,139,14448.3,12698.2,0.8788418121555622
664,20200329,1,964.0,1008.0,134,14312.7,11526.4,0.8053305947084567
665,20200329,1,964.0,901.0,127,14393.9,9651.0,0.6704518059516883
666,20200329,1,964.0,902.0,146,14407.8,14154.5,0.9823855123574908
667,20200329,1,964.0,904.0,140,14394.4,12949.0,0.8995568762458273
668,20200329,1,964.0,906.0,136,14389.2,11894.3,0.8264683983082556
669,20200329,1,964.0,908.0,132,14420.0,10685.3,0.7411547928724551
670,20200329,1,964.0,921.0,129,14383.9,10308.2,0.7165665256749028
671,20200329,1,964.0,922.0,147,14442.5,14372.7,0.9951700705779667
672,20200329,1,964.0,924.0,143,14375.2,13732.8,0.9553354359678048
673,20200329,1,964.0,926.0,138,14352.1,12766.0,0.8894529706189187
674,20200329,1,964.0,928.0,135,14457.5,11582.6,0.801209768939243
675,20200329,1,964.0,941.0,130,14278.1,10647.9,0.7457184011798583
676,20200329,1,964.0,942.0,147,14393.7,14354.4,0.997273408880693
677,20200329,1,964.0,944.0,146,14321.9,14148.6,0.9879041548142073
678,20200329,1,964.0,946.0,142,14491.2,13285.9,0.9168204982439588
679,20200329,1,964.0,948.0,135,14367.4,11873.9,0.826386651011281
680,20200329,1,964.0,961.0,131,14386.4,10933.9,0.7600412242912192
681,20200329,1,964.0,962.0,147,14433.2,14396.3,0.9974445472692028
682,20200329,1,964.0,964.0,147,14398.8,14257.7,0.9901962618300748
683,20200329,1,964.0,966.0,142,14438.7,13445.1,0.9311557581814508
684,20200329,1,964.0,968.0,137,14363.3,12215.1,0.8504587154120843
685,20200329,1,964.0,981.0,131,14433.6,10743.8,0.7443597486500588
686,20200329,1,964.0,982.0,146,14394.2,14345.0,0.9965808559848408
687,20200329,1,964.0,984.0,147,14449.3,14235.9,0.9852287653816909
688,20200329,1,964.0,986.0,141,14425.2,13329.4,0.9240086661068909
689,20200329,1,964.0,988.0,135,14343.0,11795.2,0.8223575554823446
690,20200329,1,966.0,1001.0,138,14417.1,12518.3,0.8683220252749246
691,20200329,1,966.0,1002.0,147,14330.6,14268.3,0.9956492170738015
692,20200329,1,966.0,1004.0,146,14374.1,14246.5,0.9911143533747688
693,20200329,1,966.0,1006.0,145,14414.6,13982.9,0.9700456334564874
694,20200329,1,966.0,1008.0,142,14401.2,13319.7,0.9249634281224164
695,20200329,1,966.0,901.0,137,14382.0,11944.6,0.8304761391958099
696,20200329,1,966.0,902.0,147,14425.8,14346.8,0.9945264155338641
697,20200329,1,966.0,904.0,146,14412.2,14239.2,0.9880022400480202
698,20200329,1,966.0,906.0,143,14340.4,13432.0,0.9366760947488666
699,20200329,1,966.0,908.0,140,14463.1,12908.1,0.8924772582491516
700,20200329,1,966.0,921.0,138,14368.9,12431.8,0.8652047918200887
701,20200329,1,966.0,922.0,147,14358.4,14296.8,0.9957060095410413
702,20200329,1,966.0,924.0,147,14383.2,14243.0,0.990248332598212
703,20200329,1,966.0,926.0,145,14402.7,13948.2,0.9684354464852323
704,20200329,1,966.0,928.0,141,14404.5,13228.3,0.9183735404919513
705,20200329,1,966.0,941.0,139,14389.5,12798.7,0.8893570900350024
706,20200329,1,966.0,942.0,146,14354.7,14302.8,0.9963821190596216
707,20200329,1,966.0,944.0,147,14422.2,14333.4,0.993848004594418
708,20200329,1,966.0,946.0,146,14394.4,14122.1,0.9810826349724774
709,20200329,1,966.0,948.0,142,14397.5,13515.7,0.9387595365937307
710,20200329,1,966.0,961.0,139,14389.2,12853.0,0.8931370550062644
711,20200329,1,966.0,962.0,147,14406.6,14349.5,0.9960349608548735
712,20200329,1,966.0,964.0,147,14411.9,14335.9,0.9947229482520898
713,20200329,1,966.0,966.0,145,14365.7,14172.8,0.9865459700161958
714,20200329,1,966.0,968.0,144,14405.7,13688.2,0.9502089530191415
715,20200329,1,966.0,981.0,139,14471.2,12756.4,0.8814888359872028
716,20200329,1,966.0,982.0,147,14418.5,14366.3,0.9963775556803182
717,20200329,1,966.0,984.0,146,14385.0,14304.3,0.9943841001710929
718,20200329,1,966.0,986.0,146,14415.2,14147.0,0.981372376381272
719,20200329,1,966.0,988.0,143,14337.5,13443.8,0.9376576322424677
720,20200329,1,968.0,1001.0,143,14400.8,13310.7,0.9243209416934853
721,20200329,1,968.0,1002.0,146,14364.1,14281.9,0.9942717530494246
722,20200329,1,968.0,1004.0,146,14377.3,14294.4,0.9942311605822457
723,20200329,1,968.0,1006.0,146,14404.7,14192.0,0.9852525296435409
724,20200329,1,968.0,1008.0,145,14416.3,14003.8,0.971405619908577
725,20200329,1,968.0,901.0,142,14369.0,13253.8,0.9223907945808261
726,20200329,1,968.0,902.0,147,14494.7,14407.4,0.9939752633725003
727,20200329,1,968.0,904.0,147,14403.5,14283.5,0.9916737299802122
728,20200329,1,968.0,906.0,146,14365.7,14054.2,0.9783269549561439
729,20200329,1,968.0,908.0,144,14378.1,13700.2,0.9529014571741132
730,20200329,1,968.0,921.0,142,14421.9,13429.6,0.9312122601350387
731,20200329,1,968.0,922.0,146,14446.2,14368.6,0.9946270553945368
732,20200329,1,968.0,924.0,147,14392.3,14301.5,0.9936868748902523
733,20200329,1,968.0,926.0,146,14430.7,14242.5,0.9869674211816323
734,20200329,1,968.0,928.0,145,14379.1,13912.3,0.9675434374456309
735,20200329,1,968.0,941.0,143,14437.2,13717.2,0.9501668517053974
736,20200329,1,968.0,942.0,147,14379.7,14305.8,0.9948621784002081
737,20200329,1,968.0,944.0,146,14437.5,14341.0,0.9933201700114301
738,20200329,1,968.0,946.0,147,14419.5,14279.6,0.9902987014829467
739,20200329,1,968.0,948.0,145,14376.5,14021.2,0.9752986686963793
740,20200329,1,968.0,961.0,143,14382.7,13613.9,0.9465708703187504
741,20200329,1,968.0,962.0,147,14456.6,14386.5,0.9951577539768703
742,20200329,1,968.0,964.0,147,14399.6,14319.4,0.9944288904020304
743,20200329,1,968.0,966.0,146,14400.9,14272.4,0.991084286164113
744,20200329,1,968.0,968.0,145,14392.8,14103.0,0.9798592697795
745,20200329,1,968.0,981.0,143,14416.3,13630.1,0.9454484711022738
746,20200329,1,968.0,982.0,147,14388.0,14320.4,0.9953061353740859
747,20200329,1,968.0,984.0,147,14385.8,14305.7,0.9944266813592618
748,20200329,1,968.0,986.0,146,14327.4,14207.2,0.9916135250330157
749,20200329,1,968.0,988.0,145,14363.3,14047.7,0.9779952677762545
750,20200329,1,981.0,1001.0,145,14422.8,14008.1,0.9712451584168308
751,20200329,1,981.0,1002.0,146,14317.1,14246.7,0.9950892762516469
752,20200329,1,981.0,1004.0,147,14432.6,14346.9,0.9940557831935439
753,20200329,1,981.0,1006.0,146,14383.7,14279.3,0.9927401692382288
754,20200329,1,981.0,1008.0,146,14402.3,14199.7,0.9859452252760971
755,20200329,1,981.0,901.0,143,14372.3,13553.3,0.9430395079060532
756,20200329,1,981.0,902.0,146,14430.5,14323.4,0.9925803531487792
757,20200329,1,981.0,904.0,146,14349.7,14213.6,0.9905117502629988
758,20200329,1,981.0,906.0,147,14391.9,14176.6,0.9850496028387464
759,20200329,1,981.0,908.0,145,14408.1,13924.1,0.9664096600031714
760,20200329,1,981.0,921.0,144,14382.2,13844.7,0.9626864246543937
761,20200329,1,981.0,922.0,147,14481.1,14366.1,0.9920525041537325
762,20200329,1,981.0,924.0,146,14399.9,14288.1,0.992235297833594
763,20200329,1,981.0,926.0,146,14411.2,14245.0,0.9884893400367705
764,20200329,1,981.0,928.0,146,14372.9,14071.2,0.9790146060620604
765,20200329,1,981.0,941.0,144,14365.6,13825.8,0.9624352869898039
766,20200329,1,981.0,942.0,148,14506.3,14405.4,0.9930475946078566
767,20200329,1,981.0,944.0,146,14366.6,14260.5,0.992611719715876
768,20200329,1,981.0,946.0,147,14446.4,14322.6,0.9914339884967944
769,20200329,1,981.0,948.0,147,14474.5,14247.6,0.9843201160964867
770,20200329,1,981.0,961.0,145,14413.6,13962.9,0.9687306095246194
771,20200329,1,981.0,962.0,147,14379.2,14309.8,0.9951747266396209
772,20200329,1,981.0,964.0,146,14404.0,14317.0,0.9939543067128378
773,20200329,1,981.0,966.0,146,14348.0,14234.6,0.9920927932357353
774,20200329,1,981.0,968.0,147,14404.5,14171.8,0.9838569189850899
775,20200329,1,981.0,981.0,146,14418.9,14058.1,0.974984524266757
776,20200329,1,981.0,982.0,147,14430.2,14338.9,0.9936760790684283
777,20200329,1,981.0,984.0,147,14412.2,14327.7,0.9941378553433102
778,20200329,1,981.0,986.0,147,14406.7,14304.4,0.9928997726934069
779,20200329,1,981.0,988.0,146,14428.2,14243.5,0.9872031160216519
780,20200329,1,982.0,1001.0,118,14371.2,6678.1,0.46467317561966326
781,20200329,1,982.0,1002.0,145,14458.7,14059.1,0.9724399788993588
782,20200329,1,982.0,1004.0,136,14456.8,12097.9,0.8368264191090672
783,20200329,1,982.0,1006.0,128,14408.3,9710.0,0.673995127336633
784,20200329,1,982.0,1008.0,122,14346.9,7828.5,0.5457115811607671
785,20200329,1,982.0,901.0,114,14381.4,5192.4,0.36103869172908104
786,20200329,1,982.0,902.0,110,14400.5,3716.5,0.2580722139736183
787,20200329,1,982.0,904.0,114,14377.9,4877.7,0.3390984995160594
788,20200329,1,982.0,906.0,115,14389.1,5586.8,0.3882849966513005
789,20200329,1,982.0,908.0,115,14394.1,5531.2,0.3844754529311555
790,20200329,1,982.0,921.0,116,14415.2,5673.5,0.3935372028516618
791,20200329,1,982.0,922.0,121,14344.9,7577.9,0.528702596292109
792,20200329,1,982.0,924.0,122,14452.9,7924.1,0.5487056406371283
793,20200329,1,982.0,926.0,121,14388.0,7545.9,0.5244959704420813
794,20200329,1,982.0,928.0,118,14406.5,6632.6,0.46049559305440313
795,20200329,1,982.0,941.0,117,14363.0,6325.7,0.4403257333162731
796,20200329,1,982.0,942.0,139,14437.4,12584.6,0.8715554314597174
797,20200329,1,982.0,944.0,129,14385.5,10241.4,0.7116315361209824
798,20200329,1,982.0,946.0,124,14405.8,8934.1,0.6202339654552989
799,20200329,1,982.0,948.0,120,14328.1,7401.5,0.5165252620394487
800,20200329,1,982.0,961.0,117,14361.3,6346.7,0.44200344502397826
801,20200329,1,982.0,962.0,144,14365.4,13999.0,0.974484725674387
802,20200329,1,982.0,964.0,137,14468.5,12183.8,0.8420536663841952
803,20200329,1,982.0,966.0,128,14391.4,9736.4,0.6765023781731271
804,20200329,1,982.0,968.0,122,14382.0,7861.6,0.546677815348181
805,20200329,1,982.0,981.0,118,14395.9,6785.8,0.47142072929980694
806,20200329,1,982.0,982.0,147,14382.1,14305.8,0.9946994841262707
807,20200329,1,982.0,984.0,138,14379.3,12650.2,0.8797250539869446
808,20200329,1,982.0,986.0,129,14352.2,10035.4,0.6991725053671815
809,20200329,1,982.0,988.0,123,14358.3,8170.9,0.5691290890475155
810,20200329,1,984.0,1001.0,131,14388.3,10679.3,0.7422835635136449
811,20200329,1,984.0,1002.0,147,14435.0,14386.3,0.996627467335518
812,20200329,1,984.0,1004.0,146,14402.4,14153.6,0.9827039060895281
813,20200329,1,984.0,1006.0,142,14393.8,13416.5,0.9321378100366445
814,20200329,1,984.0,1008.0,136,14434.5,12050.8,0.8347937530241006
815,20200329,1,984.0,901.0,125,14438.6,9057.6,0.6274004440936791
816,20200329,1,984.0,902.0,141,14380.3,12934.2,0.8994155127075686
817,20200329,1,984.0,904.0,134,14413.7,11409.1,0.7918092204524861
818,20200329,1,984.0,906.0,130,14397.6,10333.2,0.7176002623194587
819,20200329,1,984.0,908.0,127,14417.0,9617.2,0.6670994945333565
820,20200329,1,984.0,921.0,127,14366.5,9633.1,0.6704786981644866
821,20200329,1,984.0,922.0,145,14418.2,14144.6,0.9809837280737069
822,20200329,1,984.0,924.0,140,14446.0,12851.6,0.8897992363435241
823,20200329,1,984.0,926.0,135,14368.6,11645.4,0.8103928843000274
824,20200329,1,984.0,928.0,131,14449.2,10651.6,0.7371997562375878
825,20200329,1,984.0,941.0,129,14423.0,10183.1,0.7059894421221825
826,20200329,1,984.0,942.0,147,14437.7,14355.7,0.9943227284264365
827,20200329,1,984.0,944.0,144,14421.3,13731.8,0.9522495032423851
828,20200329,1,984.0,946.0,138,14422.3,12537.7,0.8692351893458967
829,20200329,1,984.0,948.0,134,14396.3,11595.7,0.8055592632016303
830,20200329,1,984.0,961.0,131,14403.8,10675.1,0.7411566714904925
831,20200329,1,984.0,962.0,146,14454.7,14409.4,0.9968657203943996
832,20200329,1,984.0,964.0,146,14421.6,14162.4,0.9820228960441169
833,20200329,1,984.0,966.0,142,14455.3,13325.0,0.9217890994155213
834,20200329,1,984.0,968.0,135,14400.0,11865.9,0.8240515653754121
835,20200329,1,984.0,981.0,130,14393.0,10428.4,0.7245860621529869
836,20200329,1,984.0,982.0,147,14389.5,14355.6,0.997642041064252
837,20200329,1,984.0,984.0,145,14377.0,14211.4,0.9884943933514778
838,20200329,1,984.0,986.0,143,14385.3,13461.0,0.9357655084474535
839,20200329,1,984.0,988.0,137,14384.1,12214.8,0.8492390087005448
840,20200329,1,986.0,1001.0,138,14365.5,12605.0,0.8774136804591306
841,20200329,1,986.0,1002.0,147,14413.5,14363.7,0.9965446535007431
842,20200329,1,986.0,1004.0,147,14433.1,14352.4,0.9944079153346321
843,20200329,1,986.0,1006.0,146,14449.7,14159.3,0.9799041723661965
844,20200329,1,986.0,1008.0,143,14428.5,13608.1,0.9431291772708319
845,20200329,1,986.0,901.0,134,14338.0,11536.3,0.8046229910641047
846,20200329,1,986.0,902.0,147,14439.8,14275.6,0.9886126445253363
847,20200329,1,986.0,904.0,143,14388.1,13810.0,0.9598058834597873
848,20200329,1,986.0,906.0,140,14339.2,12735.5,0.8881762397810956
849,20200329,1,986.0,908.0,137,14482.1,12282.7,0.8481621957076623
850,20200329,1,986.0,921.0,136,14358.2,12120.7,0.8441529987686434
851,20200329,1,986.0,922.0,146,14376.5,14292.7,0.994172716507185
852,20200329,1,986.0,924.0,147,14413.0,14245.3,0.9883544833593192
853,20200329,1,986.0,926.0,142,14379.9,13504.6,0.9391115233514297
854,20200329,1,986.0,928.0,140,14444.8,12801.2,0.8860767656069856
855,20200329,1,986.0,941.0,138,14422.2,12493.1,0.8662378300778133
856,20200329,1,986.0,942.0,146,14392.6,14324.7,0.9952829908613274
857,20200329,1,986.0,944.0,147,14450.7,14303.3,0.9897986491297097
858,20200329,1,986.0,946.0,145,14390.9,13911.8,0.966690655361598
859,20200329,1,986.0,948.0,141,14330.3,13303.8,0.9283046989771438
860,20200329,1,986.0,961.0,139,14389.7,12632.3,0.8778612612392946
861,20200329,1,986.0,962.0,146,14381.6,14330.3,0.996432900525622
862,20200329,1,986.0,964.0,147,14410.7,14331.5,0.9945067517780769
863,20200329,1,986.0,966.0,145,14379.0,14073.3,0.9787433861069548
864,20200329,1,986.0,968.0,143,14403.0,13632.3,0.9465403547868989
865,20200329,1,986.0,981.0,139,14369.3,12793.2,0.8902691307290503
866,20200329,1,986.0,982.0,147,14379.8,14313.4,0.9953842425415648
867,20200329,1,986.0,984.0,147,14370.3,14306.2,0.9955376480509752
868,20200329,1,986.0,986.0,146,14493.7,14282.6,0.9854393026384635
869,20200329,1,986.0,988.0,144,14465.3,13715.4,0.9481669386642426
870,20200329,1,988.0,1001.0,143,14412.9,13567.4,0.9413512748408588
871,20200329,1,988.0,1002.0,147,14402.7,14332.2,0.995109120659122
872,20200329,1,988.0,1004.0,147,14400.2,14325.0,0.9947804384119736
873,20200329,1,988.0,1006.0,147,14426.4,14295.7,0.9909367167297007
874,20200329,1,988.0,1008.0,146,14424.1,14091.2,0.976927820328438
875,20200329,1,988.0,901.0,139,14398.6,12687.8,0.8812073733883775
876,20200329,1,988.0,902.0,146,14344.2,14247.2,0.9932525112232786
877,20200329,1,988.0,904.0,146,14413.2,14209.0,0.9858499908347487
878,20200329,1,988.0,906.0,145,14426.8,13936.2,0.9659706873506755
879,20200329,1,988.0,908.0,141,14365.3,13243.7,0.9218973998758914
880,20200329,1,988.0,921.0,141,14376.4,13091.0,0.9106318244650865
881,20200329,1,988.0,922.0,147,14410.0,14311.4,0.9931536202494847
882,20200329,1,988.0,924.0,147,14444.1,14313.1,0.990919504130417
883,20200329,1,988.0,926.0,147,14437.1,14143.7,0.9796734031380172
884,20200329,1,988.0,928.0,144,14464.2,13722.3,0.9486245004267373
885,20200329,1,988.0,941.0,143,14429.3,13567.0,0.9402099081767954
886,20200329,1,988.0,942.0,147,14327.9,14242.0,0.994005146141961
887,20200329,1,988.0,944.0,146,14377.9,14265.8,0.9922043187908118
888,20200329,1,988.0,946.0,146,14399.9,14217.0,0.987306871766329
889,20200329,1,988.0,948.0,146,14362.6,14010.9,0.9755101224653663
890,20200329,1,988.0,961.0,144,14346.6,13589.1,0.9471784026956233
891,20200329,1,988.0,962.0,147,14414.5,14340.0,0.9948323482213999
892,20200329,1,988.0,964.0,147,14408.2,14323.3,0.9941072656975269
893,20200329,1,988.0,966.0,146,14432.8,14307.8,0.9913429324128871
894,20200329,1,988.0,968.0,146,14365.7,14038.5,0.9772270181720455
895,20200329,1,988.0,981.0,143,14436.4,13700.5,0.9490228686635025
896,20200329,1,988.0,982.0,147,14396.0,14326.0,0.9951351160688287
897,20200329,1,988.0,984.0,147,14439.5,14364.4,0.9948013337319399
898,20200329,1,988.0,986.0,147,14441.7,14322.5,0.9917388196673917
899,20200329,1,988.0,988.0,145,14362.6,14054.3,0.9785328223043036
